Data Science for Public Policy
…
folds <- vfold_cv(data = data_train, v = 10)

# Create a recipe

recipe <- 
  recipe(health ~ age + sex + hisprace + yrsinusg + citizen, data = data_train) %>%
  step_dummy(all_nominal(), -all_outcomes()) %>% 
  step_scale(all_predictors()) %>%
  step_normalize(all_predictors()) %>%
  step_zv(all_predictors()) %>%
  step_center(all_predictors()) 

bake(prep(recipe, training = data_train), new_data = data_train)

# A tibble: 3,614 × 6
        age    sex hisprace yrsinusg citizen health
      <dbl>  <dbl>    <dbl>    <dbl>   <dbl> <fct> 
 1  0.719   -1.11     1.18     0.619   0.610 3     
 2 -0.00127  0.904    1.18     0.619   0.610 3     
 3 -0.361   -1.11    -0.974    0.619  -0.961 2     
 4 -0.271   -1.11     0.463   -1.22   -0.961 2     
 5  0.539    0.904    1.18     0.619   0.610 1     
 6  0.0287   0.904    1.18     0.619   0.610 3     
 7 -0.782   -1.11    -0.974    0.619   0.610 2     
 8 -0.211   -1.11    -0.255    0.619   0.610 1     
 9  0.269   -1.11    -0.974    0.619  -0.961 2     
10 -0.421    0.904    0.463   -1.22   -0.961 1     
# ℹ 3,604 more rows
…
